<svg width="13" height="12" viewBox="0 0 13 12" fill="none" xmlns="http://www.w3.org/2000/svg">
<path d="M8.20211 5.41666H7.03544V3.08332C7.03544 2.92861 6.97399 2.78024 6.86459 2.67084C6.75519 2.56145 6.60682 2.49999 6.45211 2.49999C6.2974 2.49999 6.14903 2.56145 6.03963 2.67084C5.93024 2.78024 5.86878 2.92861 5.86878 3.08332V5.99999C5.86878 6.1547 5.93024 6.30307 6.03963 6.41247C6.14903 6.52187 6.2974 6.58332 6.45211 6.58332H8.20211C8.35682 6.58332 8.50519 6.52187 8.61459 6.41247C8.72399 6.30307 8.78544 6.1547 8.78544 5.99999C8.78544 5.84528 8.72399 5.69691 8.61459 5.58751C8.50519 5.47812 8.35682 5.41666 8.20211 5.41666ZM6.45211 0.166656C5.29839 0.166656 4.17057 0.508776 3.21128 1.14975C2.252 1.79073 1.50432 2.70177 1.06281 3.76767C0.621302 4.83357 0.505782 6.00646 0.730863 7.13802C0.955943 8.26957 1.51151 9.30897 2.32732 10.1248C3.14313 10.9406 4.18253 11.4962 5.31408 11.7212C6.44564 11.9463 7.61853 11.8308 8.68443 11.3893C9.75033 10.9478 10.6614 10.2001 11.3023 9.24082C11.9433 8.28153 12.2854 7.15371 12.2854 5.99999C12.2854 5.23395 12.1346 4.4754 11.8414 3.76767C11.5483 3.05994 11.1186 2.41688 10.5769 1.8752C10.0352 1.33353 9.39216 0.903845 8.68443 0.610693C7.9767 0.31754 7.21815 0.166656 6.45211 0.166656ZM6.45211 10.6667C5.52913 10.6667 4.62688 10.393 3.85945 9.88018C3.09202 9.3674 2.49388 8.63857 2.14067 7.78585C1.78746 6.93312 1.69505 5.99481 1.87511 5.08957C2.05518 4.18432 2.49963 3.3528 3.15228 2.70016C3.80492 2.04751 4.63644 1.60306 5.54169 1.42299C6.44693 1.24293 7.38524 1.33534 8.23797 1.68855C9.09069 2.04176 9.81952 2.6399 10.3323 3.40733C10.8451 4.17476 11.1188 5.07701 11.1188 5.99999C11.1188 7.23767 10.6271 8.42465 9.75194 9.29982C8.87677 10.175 7.68979 10.6667 6.45211 10.6667Z" fill="currentColor"/>
</svg>
