<svg width="12" height="8" viewBox="0 0 12 8" fill="none" xmlns="http://www.w3.org/2000/svg">
<path d="M0.343384 1.64335L6.00005 7.30002L11.6567 1.64335L10.714 0.700018L6.00005 5.41469L1.28605 0.700018L0.343384 1.64335Z" fill="currentColor"/>
</svg>
