<svg width="48" height="27" viewBox="0 0 48 27" fill="none" xmlns="http://www.w3.org/2000/svg">
<path d="M12.5593 4.02939C12.5593 4.02939 10.9731 1.43149 13.9059 0.119105C13.9059 0.119105 16.1347 -0.775372 17.0243 2.33819C17.0243 2.33819 18.5224 -0.0788528 20.7708 1.60501C20.7708 1.60501 22.1908 2.62657 21.4014 4.6257C21.4014 4.6257 23.8966 5.55439 22.8408 8.09608C22.8408 8.09608 25.077 9.12986 23.6253 12.329L12.2318 12.5733C12.2318 12.5733 9.35771 10.5058 10.9927 8.49199C10.6872 8.8708 9.56544 7.39223 9.48479 7.21626C8.4779 5.02406 10.5772 3.55771 12.5593 4.02939Z" fill="#B4D6BD"/>
<path d="M21.3769 8.95143L17.9456 12.4511L14.4264 2.30151" stroke="#378391" stroke-width="2" stroke-miterlimit="10"/>
<path d="M20.106 5.28308L17.2393 10.4129" stroke="#378391" stroke-width="2" stroke-miterlimit="10"/>
<path d="M12.0338 8.3551L16.951 9.57951" stroke="#378391" stroke-width="2" stroke-miterlimit="10"/>
<path d="M2.47562 7.39219C2.47562 7.39219 0.0439173 5.5568 2.29233 3.26196C2.29233 3.26196 4.03485 1.61231 6.00954 4.18087C6.00954 4.18087 6.51299 1.38258 9.22086 2.11575C9.22086 2.11575 10.9169 2.54344 10.9169 4.69165C10.9169 4.69165 13.5784 4.63789 13.5319 7.39219C13.5319 7.39219 15.9905 7.53149 15.817 11.0385L5.30813 15.4596C5.30813 15.4596 1.88664 14.5944 2.65647 12.1163C2.51228 12.5806 0.926174 11.6275 0.784427 11.4833C-0.953204 9.81656 0.456941 7.68057 2.47562 7.39219Z" fill="#60B8BF"/>
<path d="M12.4859 8.72664L10.5797 13.243L3.57782 5.09741" stroke="#378391" stroke-width="2" stroke-miterlimit="10"/>
<path d="M9.95399 5.78418L9.17194 11.6056" stroke="#378391" stroke-width="2" stroke-miterlimit="10"/>
<path d="M3.57782 11.6055L8.59764 10.9384" stroke="#378391" stroke-width="2" stroke-miterlimit="10"/>
<path d="M27.1177 13.8589C28.9547 13.8589 30.4439 12.3697 30.4439 10.5327C30.4439 8.69573 28.9547 7.20654 27.1177 7.20654C25.2807 7.20654 23.7915 8.69573 23.7915 10.5327C23.7915 12.3697 25.2807 13.8589 27.1177 13.8589Z" fill="#FFD772"/>
<path d="M32.6239 15.2812L38.0005 8.17181C38.0005 8.17181 41.422 3.68232 45.5767 7.08427C45.5767 7.08427 49.7949 11.4271 44.6114 15.2812H32.6239Z" fill="#2A626B"/>
<path d="M45.4007 6.96704C44.7648 6.40812 43.9906 6.03006 43.1588 5.8723C42.327 5.71454 41.4681 5.78285 40.6717 6.07012C39.5948 6.50109 38.6625 7.22913 37.9834 8.16945L32.6068 15.2813H38.1789L45.4007 6.96704Z" fill="#8DC4B3"/>
<path d="M24.4514 15.2812L29.8281 8.17181C29.8281 8.17181 33.2495 3.68232 37.4042 7.08427C37.4042 7.08427 41.6224 11.4271 36.4389 15.2812H24.4514Z" fill="#2A626B"/>
<path d="M37.2356 6.96704C36.5997 6.40812 35.8255 6.03006 34.9937 5.8723C34.1619 5.71454 33.303 5.78285 32.5066 6.07012C31.4297 6.50109 30.4974 7.22913 29.8183 8.16945L24.4417 15.2813H30.0138L37.2356 6.96704Z" fill="#49A187"/>
<path d="M23.1194 19.8024C26.2103 19.8024 28.716 17.4259 28.716 14.4942C28.716 11.5626 26.2103 9.18604 23.1194 9.18604C20.0285 9.18604 17.5228 11.5626 17.5228 14.4942C17.5228 17.4259 20.0285 19.8024 23.1194 19.8024Z" fill="#D66D64"/>
<path d="M19.6905 14.8439C19.9117 12.1481 16.8652 9.69805 12.886 9.3716C8.90685 9.04515 5.5018 10.9659 5.28064 13.6617C5.05948 16.3576 8.10594 18.8076 12.0851 19.1341C16.0643 19.4605 19.4693 17.5397 19.6905 14.8439Z" fill="#FDF5F2"/>
<path d="M11.088 18.0737C12.8805 18.0737 14.3335 16.6206 14.3335 14.8282C14.3335 13.0357 12.8805 11.5826 11.088 11.5826C9.29554 11.5826 7.84247 13.0357 7.84247 14.8282C7.84247 16.6206 9.29554 18.0737 11.088 18.0737Z" fill="#F3A577"/>
<path d="M4.23767 15.2812H44.5991C44.5991 15.2812 44.3694 23.6761 36.2897 24.9616V26.6577H12.6594V24.8248C12.6594 24.8248 5.26656 24.5486 4.23767 15.2812Z" fill="#FBC7B8"/>
<path d="M35.1219 24.1463C40.3902 22.3902 41.3415 17.561 41.1585 15.3658L44.4512 16.4634C43.5732 23.4878 38.5976 25.2439 36.2195 25.2439V26.3415H35.1219V24.1463Z" fill="#FBB49E"/>
<path fill-rule="evenodd" clip-rule="evenodd" d="M29.4936 14.2683H26.7166H21.5548H16.3905H13.6135H5.00099C4.0613 14.2683 3.29266 14.7635 3.29266 15.3667C3.29266 15.97 4.0613 16.4634 5.00099 16.4634H5.58535H43.8049H44.3892C45.3289 16.4634 46.0975 15.97 46.0975 15.3667C46.0975 14.7635 45.3289 14.2683 44.3892 14.2683H43.3784H37.5375H29.4936Z" fill="#365E7D"/>
</svg>
