<svg width="56" height="56" viewBox="0 0 56 56" fill="none" xmlns="http://www.w3.org/2000/svg">
<path d="M30.5893 33.5737C20.978 29.8872 9.74291 35.8558 3.42316 40.1568C7.89965 49.1975 17.2037 55.3856 28 55.3856C32.4764 55.3856 36.7335 54.2884 40.4639 52.4013C46.6081 49.2414 51.4357 43.8433 53.8056 37.2602C47.2664 38.1818 38.7962 36.6897 30.5893 33.5737Z" fill="#C89D74"/>
<path d="M25.9811 18.5203C37.7868 24.2257 47.0469 20.8464 52.9717 16.6771C48.6269 7.19746 39.1034 0.570496 27.9999 0.570496C17.6864 0.570496 8.73346 6.23194 4.03754 14.6144C9.34788 13.6489 16.6331 14 25.9811 18.5203Z" fill="#EDCAB0"/>
<path d="M54.4202 20.7147C54.0252 19.3103 53.5425 17.9937 52.9719 16.6771C47.0472 20.8464 37.787 24.2257 25.9813 18.5204C16.6334 14 9.34811 13.6489 4.03776 14.6583C3.68667 15.3166 3.33557 15.9749 3.02836 16.6771C1.44842 20.1442 0.570679 23.9624 0.570679 28C0.570679 28.9655 0.614566 29.931 0.70234 30.8526C1.09732 34.1881 2.01895 37.3041 3.42334 40.1567C9.74309 35.8558 20.9782 29.8871 30.5895 33.5736C38.7964 36.6896 47.2666 38.1818 53.7619 37.3041C54.8152 34.4075 55.3857 31.2915 55.3857 28C55.3857 25.4545 55.0346 23.0407 54.4202 20.7147Z" fill="#D6AF8B"/>
<path d="M8.60199 13.4295L10.9719 11.0157C11.2791 10.7085 11.5424 10.489 11.8058 10.3135C12.0691 10.1379 12.3324 10.0502 12.5957 10.0063C12.859 9.96239 13.0785 10.0063 13.2979 10.0502C13.5174 10.1379 13.7368 10.2696 13.9123 10.4451C14.2195 10.7085 14.3512 11.0596 14.3951 11.4546C14.7023 11.3668 15.0534 11.3668 15.3167 11.4546C15.6239 11.5423 15.8873 11.7179 16.1506 11.9373C16.37 12.1567 16.5017 12.3762 16.6333 12.5956C16.7211 12.8151 16.765 13.0784 16.765 13.3417C16.765 13.605 16.6772 13.8683 16.5017 14.1756C16.37 14.4389 16.1506 14.7461 15.8434 15.0533L13.1224 17.8182L8.60199 13.4295ZM13.0346 12.3323C13.1224 12.2445 13.2101 12.1567 13.254 12.1129C13.254 11.8495 13.1663 11.674 13.0346 11.4984C12.859 11.3229 12.6835 11.279 12.4641 11.3229C12.2446 11.3668 12.0252 11.4984 11.7619 11.7618L10.2697 13.2978L11.1913 14.2194L13.0346 12.3323ZM15.0534 14.2633C15.3167 14 15.4484 13.7806 15.4484 13.5611C15.4484 13.3417 15.3606 13.1223 15.1851 12.9467C15.0095 12.7712 14.7901 12.6834 14.5268 12.6834C14.3073 12.7273 14.044 12.8589 13.8246 13.0784L11.9813 14.9655L13.2101 16.1505L15.0534 14.2633Z" fill="black"/>
<path d="M19.1347 8.77741C19.0031 8.33854 19.0031 7.89967 19.0469 7.4608C19.1347 7.02192 19.2664 6.62694 19.4858 6.27584C19.7052 5.92475 20.0563 5.61754 20.4074 5.35421C20.8024 5.09089 21.2413 4.87146 21.7679 4.73979C22.2946 4.60813 22.7773 4.56425 23.2601 4.60813C23.7429 4.65202 24.1817 4.78368 24.5328 4.95923C24.9278 5.13478 25.235 5.44199 25.4983 5.7492C25.7617 6.1003 25.9811 6.49528 26.0689 6.97804C26.2005 7.4608 26.2005 7.89967 26.1567 8.33854C26.0689 8.77741 25.9372 9.17239 25.7178 9.52349C25.4983 9.87459 25.1473 10.1818 24.7962 10.489C24.4012 10.7523 23.9623 10.9718 23.4357 11.1034C22.909 11.2351 22.4262 11.279 21.9435 11.2351C21.4607 11.1912 21.0219 11.0595 20.6708 10.884C20.2758 10.6646 19.9686 10.4012 19.7052 10.0501C19.4419 9.65515 19.2664 9.26017 19.1347 8.77741ZM20.3636 8.4702C20.4513 8.77741 20.583 9.04073 20.7585 9.30406C20.9341 9.52349 21.1535 9.69904 21.4168 9.8307C21.6802 9.96236 21.9435 10.0501 22.2507 10.0501C22.5579 10.094 22.8651 10.0501 23.1723 9.96236C23.4795 9.87459 23.7867 9.74293 24.0501 9.56738C24.3134 9.39183 24.4889 9.21628 24.6645 8.95296C24.84 8.73352 24.9278 8.4702 24.9717 8.16299C25.0156 7.89967 25.0156 7.59246 24.9278 7.24136C24.84 6.93415 24.7084 6.67083 24.5328 6.45139C24.3573 6.23196 24.1378 6.05641 23.8745 5.92475C23.6112 5.79308 23.3479 5.7492 23.0407 5.70531C22.7335 5.70531 22.4262 5.70531 22.119 5.79308C21.8118 5.88086 21.5046 6.01252 21.2413 6.18807C20.978 6.36362 20.8024 6.53917 20.6269 6.7586C20.4513 6.97804 20.3636 7.24136 20.3197 7.50468C20.2758 7.85578 20.2758 8.16299 20.3636 8.4702Z" fill="black"/>
<path d="M32.0376 4.16925L35.2852 5.13477C35.6802 5.26643 36.0313 5.39809 36.2946 5.57364C36.558 5.74919 36.7774 5.92474 36.9091 6.14417C37.0407 6.36361 37.1724 6.58304 37.1724 6.80248C37.2163 7.02191 37.1724 7.28524 37.1285 7.50467C36.9968 7.89966 36.7774 8.20687 36.4702 8.4263C36.6896 8.68963 36.8652 8.95295 36.9091 9.26016C36.9529 9.56737 36.9529 9.87458 36.8652 10.2257C36.7774 10.489 36.6457 10.7523 36.5141 10.9718C36.3385 11.1912 36.163 11.3229 35.8997 11.4106C35.6363 11.4984 35.373 11.5862 35.0658 11.5862C34.7586 11.5862 34.3636 11.5423 33.9686 11.4106L30.2382 10.3135L32.0376 4.16925ZM34.3197 10.3135C34.6708 10.4012 34.9341 10.4012 35.1536 10.3135C35.373 10.2257 35.5047 10.0501 35.5924 9.78681C35.6802 9.52348 35.6363 9.30405 35.5047 9.08461C35.373 8.90906 35.1536 8.73351 34.8025 8.64574L32.257 7.89966L31.7743 9.56737L34.3197 10.3135ZM35.0658 7.63633C35.1536 7.68022 35.2852 7.68022 35.373 7.72411C35.5924 7.59245 35.7241 7.46079 35.8119 7.24135C35.8558 7.02191 35.8558 6.80248 35.7241 6.67082C35.5924 6.49527 35.3291 6.36361 35.0219 6.27583L32.9592 5.66141L32.6081 6.93414L35.0658 7.63633Z" fill="black"/>
<path d="M45.0281 10.9717L45.9937 11.9373L43.536 18.5642L42.5705 17.5987L43.0093 16.5015L40.42 13.8244L39.3228 14.2194L38.4012 13.2539L45.0281 10.9717ZM43.4043 15.4043L44.5454 12.42L41.5172 13.4733L43.4043 15.4043Z" fill="black"/>
<path d="M46.8714 36.8213C46.7836 36.8213 46.7397 36.8213 46.6519 36.7774C46.3447 36.6457 46.2131 36.2946 46.3447 36.0313C47.3541 33.5736 47.8808 30.9843 47.8808 28.3511C47.8808 25.674 47.3541 23.0846 46.3447 20.6708C46.2131 20.3636 46.3447 20.0125 46.6519 19.9247C46.9591 19.7931 47.3102 19.9247 47.398 20.2319C48.4952 22.8213 49.0218 25.5423 49.0218 28.395C49.0218 31.2037 48.4513 33.9686 47.398 36.558C47.3102 36.6457 47.0908 36.8213 46.8714 36.8213Z" fill="black"/>
<path d="M9.1285 36.8213C8.90906 36.8213 8.68963 36.6896 8.60185 36.4702C7.50467 33.8809 6.97803 31.1599 6.97803 28.3072C6.97803 25.4984 7.54856 22.7335 8.60185 20.1442C8.73351 19.837 9.08461 19.7053 9.34793 19.837C9.65514 19.9686 9.7868 20.3197 9.65514 20.5831C8.64574 23.0407 8.11909 25.6301 8.11909 28.2633C8.11909 30.9404 8.64574 33.5298 9.65514 35.9436C9.7868 36.2508 9.65514 36.6019 9.34793 36.6896C9.26016 36.7774 9.21627 36.8213 9.1285 36.8213Z" fill="black"/>
<path d="M14.1318 38.3134L15.0534 39.235L15.0095 42.5266L18.301 42.5705L19.2227 43.4921L14.7023 47.9247L13.7807 47.0031L17.0283 43.7993L13.8246 43.7115L13.7807 40.5078L10.533 43.7115L9.61139 42.7899L14.1318 38.3134Z" fill="black"/>
<path d="M22.8214 44.8087L24.138 45.2036L25.2791 52.1817L23.9625 51.7867L23.7869 50.6018L20.2321 49.5485L19.4421 50.4262L18.1255 50.0312L22.8214 44.8087ZM23.6114 49.4607L23.1286 46.3008L21.022 48.6707L23.6114 49.4607Z" fill="black"/>
<path d="M28.0001 46.0376L29.2728 45.7742L33.5737 46.9153L33.1349 44.8965L34.4076 44.6332L35.812 50.8213L34.5392 51.0846L33.8809 48.2319L29.58 47.0909L30.6772 51.9623L29.4045 52.2256L28.0001 46.0376Z" fill="black"/>
<path d="M35.9438 43.536L37.041 42.8338L40.4642 48.188L39.367 48.8902L35.9438 43.536Z" fill="black"/>
<path d="M39.9813 40.1567L40.8152 39.0595L47.7055 40.5517L46.8716 41.605L45.7305 41.3416L43.4484 44.326L43.9751 45.3793L43.1412 46.4325L39.9813 40.1567ZM44.5895 41.1222L41.4735 40.42L42.9218 43.2727L44.5895 41.1222Z" fill="black"/>
<path d="M28 56C12.5517 56 0 43.4044 0 28C0 12.5956 12.5517 0 28 0C43.4483 0 56 12.5517 56 28C56 43.4483 43.4044 56 28 56ZM28 1.18495C13.21 1.18495 1.18495 13.21 1.18495 28C1.18495 42.79 13.21 54.815 28 54.815C42.79 54.815 54.815 42.79 54.815 28C54.815 13.21 42.79 1.18495 28 1.18495Z" fill="black"/>
</svg>
