<svg width="25" height="24" viewBox="0 0 25 24" fill="none" xmlns="http://www.w3.org/2000/svg">
<path fill-rule="evenodd" clip-rule="evenodd" d="M13.846 3.29791C13.2777 3.10451 12.6698 3 12.0396 3C9.18331 3 6.78352 5.14713 6.46705 7.98584L6.21672 10.2313L6.2103 10.2885C6.08061 11.4153 5.71281 12.5016 5.1313 13.4754L5.10169 13.5247L4.52247 14.4868C3.9976 15.3587 3.73516 15.7946 3.79046 16.1526C3.82762 16.3932 3.95128 16.612 4.13826 16.768C4.41647 17 4.92531 17 5.94298 17H18.1362C19.1539 17 19.6627 17 19.941 16.768C20.1279 16.612 20.2516 16.3932 20.2888 16.1526C20.3441 15.7946 20.0816 15.3587 19.5567 14.4868L18.9775 13.5247L18.9479 13.4754C18.4898 12.7082 18.1643 11.8711 17.9834 10.9994C15.2626 10.9587 13.053 8.74524 13.053 6C13.053 5.00296 13.3444 4.07605 13.846 3.29791ZM16.3261 4.99208C17.0135 5.80634 17.475 6.82254 17.608 7.94912C16.7172 7.74489 16.053 6.94976 16.053 6C16.053 5.63244 16.1525 5.28803 16.3261 4.99208Z" fill="#002E4B"/>
<path d="M9.03071 17C9.03071 17.394 9.10857 17.7841 9.25984 18.1481C9.41111 18.512 9.63282 18.8427 9.91233 19.1213C10.1918 19.3999 10.5237 19.6209 10.8889 19.7716C11.2541 19.9224 11.6455 20 12.0407 20C12.436 20 12.8274 19.9224 13.1926 19.7716C13.5578 19.6209 13.8897 19.3999 14.1692 19.1213C14.4487 18.8427 14.6704 18.512 14.8217 18.1481C14.9729 17.7841 15.0508 17.394 15.0508 17L12.0407 17H9.03071Z" fill="#002E4B"/>
<path d="M18.0594 8.5C19.4423 8.5 20.5661 7.38228 20.5661 6C20.5661 4.61772 19.4423 3.5 18.0594 3.5C16.6766 3.5 15.5527 4.61772 15.5527 6C15.5527 7.38228 16.6766 8.5 18.0594 8.5Z" fill="#002E4B" stroke="#002E4B"/>
</svg>
